providername,Providerwebsite,"Provider Address","Class name","Provider Phoneno",TotalClick
"The Art of Spanish Institute LLC",https://bit.ly/3Ff3cAL,,"kid class denver capitol hill",,0
"The Craftsman & Apprentice",https://bit.ly/3Bbn2dB,,"kid class denver capitol hill",,0
"Yoga For Young Warriors",,,"kid class denver capitol hill",,
"Rocky Mountain Conservatory Theatre",https://bit.ly/3D7JXXW,,"kid class denver capitol hill",,0
"Black Swan Yoga Denver Capitol Hill",https://bit.ly/3B9F2VW,,"kid class denver capitol hill",,2
"Stephenotto School of Music",https://bit.ly/3FdNgi6,,"kid class denver capitol hill",,0
BridgeLanguages,https://bit.ly/2YfmMMi,,"kid class denver capitol hill",,0
"Downtown Denver YMCA",https://bit.ly/3owQZ4h,,"kid class denver capitol hill",,0
"Children's Music Academy of Park Hill",https://bit.ly/3owJs5F,,"kid class denver capitol hill",,0
" Denver",https://bit.ly/3lbyxwh,,"kid class denver capitol hill",,0
"Eight Count Magic",https://bit.ly/3BdYYXu,,"kid class denver capitol hill",,0
"Colorado Children's Campaign",https://bit.ly/3a2b1eK,,"kid class denver capitol hill",,0
"school of beats",https://bit.ly/3ovAvtj,,"kid class denver capitol hill",,0
"Art Garage",https://bit.ly/3l9jiny,,"kid class denver capitol hill",,0
"Central Visitation Program",https://bit.ly/3A81Sf9,,"kid class denver capitol hill",,0
SWEAT!,https://bit.ly/3l4BhLH,,"kid class denver capitol hill",,0
"CorePower Yoga",https://bit.ly/3uBP8fL,,"kid class denver capitol hill",,0
"Creative Dance Kids",https://bit.ly/3l6pg8p,,"kid class denver capitol hill",,0
"Rocky Mountain Aardvarks",https://bit.ly/3AarHLx,,"kid class denver capitol hill",,0
"Denver Turnverein Dance Center",https://bit.ly/3l5Svsb,,"kid class denver capitol hill",,1
"SafeSplash Swim School - Park Hill",,,"kid class denver capitol hill",,
